tb_top_debug.vcd
$date
	Wed Oct 29 10:48:16 2025
$end
$version
	Icarus Verilog
$end
$timescale
	1ps
$end
$scope module tb_top_debug $end
$var wire 1 ! select1 $end
$var wire 1 " select0 $end
$var wire 7 # seg [6:0] $end
$var wire 4 $ keypad_rows [3:0] $end
$var parameter 32 % CLK_PERIOD $end
$var parameter 32 & DEBOUNCE_TIME $end
$var reg 4 ' keypad_cols [3:0] $end
$var reg 1 ( reset $end
$var integer 32 ) cycle_count [31:0] $end
$var integer 32 * test_count [31:0] $end
$var integer 32 + timeout_count [31:0] $end
$scope function get_key_name $end
$var reg 4 , key [3:0] $end
$upscope $end
$scope function get_seg_display $end
$var reg 7 - seg_val [6:0] $end
$upscope $end
$scope module dut $end
$var wire 4 . keypad_cols [3:0] $end
$var wire 1 ( reset $end
$var wire 1 ! select1 $end
$var wire 1 " select0 $end
$var wire 7 / seg [6:0] $end
$var wire 1 0 scan_stop $end
$var wire 4 1 row_idx [3:0] $end
$var wire 4 2 raw_key_code [3:0] $end
$var wire 4 3 keypad_rows [3:0] $end
$var wire 1 4 key_valid $end
$var wire 1 5 key_detected $end
$var wire 4 6 digit_right [3:0] $end
$var wire 4 7 digit_left [3:0] $end
$var wire 4 8 debounced_key [3:0] $end
$var wire 4 9 col_sync [3:0] $end
$var reg 1 : clk $end
$var reg 4 ; col_onehot [3:0] $end
$scope module controller_inst $end
$var wire 1 : clk $end
$var wire 1 ( rst_n $end
$var wire 1 4 key_valid $end
$var wire 4 < key_code [3:0] $end
$var wire 4 = digit_right [3:0] $end
$var wire 4 > digit_left [3:0] $end
$var reg 4 ? left_digit_reg [3:0] $end
$var reg 4 @ new_key [3:0] $end
$var reg 4 A right_digit_reg [3:0] $end
$var reg 3 B state [2:0] $end
$upscope $end
$scope module debouncer_inst $end
$var wire 1 : clk $end
$var wire 1 ( rst_n $end
$var wire 1 5 key_detected $end
$var wire 4 C key_code [3:0] $end
$var wire 4 D col [3:0] $end
$var parameter 32 E DEBOUNCE_MAX $end
$var reg 2 F current_state [1:0] $end
$var reg 20 G debounce_cnt [19:0] $end
$var reg 4 H debounced_key [3:0] $end
$var reg 1 4 key_valid $end
$var reg 4 I l_key [3:0] $end
$var reg 4 J saved_col [3:0] $end
$var reg 1 0 scan_stop $end
$upscope $end
$scope module decoder_inst $end
$var wire 4 K col_onehot [3:0] $end
$var wire 4 L row_onehot [3:0] $end
$var reg 4 M key_code [3:0] $end
$upscope $end
$scope module display_system $end
$var wire 1 : clk $end
$var wire 1 N reset $end
$var wire 4 O s0 [3:0] $end
$var wire 4 P s1 [3:0] $end
$var wire 7 Q seg [6:0] $end
$var wire 1 " select0 $end
$var wire 1 ! select1 $end
$var wire 7 R seg_out [6:0] $end
$var wire 1 S mux_select $end
$var wire 4 T digit_to_display [3:0] $end
$var reg 16 U mux_counter [15:0] $end
$scope module seg_decoder $end
$var wire 4 V num [3:0] $end
$var reg 7 W seg [6:0] $end
$upscope $end
$upscope $end
$scope module scanner_inst $end
$var wire 1 : clk $end
$var wire 4 X col [3:0] $end
$var wire 4 Y col_sync [3:0] $end
$var wire 1 ( rst_n $end
$var wire 1 0 scan_stop $end
$var wire 1 Z scan_timeout $end
$var wire 1 5 key_detected $end
$var parameter 32 [ SCAN_PERIOD $end
$var reg 4 \ col_sync1 [3:0] $end
$var reg 4 ] col_sync2 [3:0] $end
$var reg 2 ^ current_state [1:0] $end
$var reg 2 _ next_state [1:0] $end
$var reg 4 ` row [3:0] $end
$var reg 4 a row_idx [3:0] $end
$var reg 4 b row_sync1 [3:0] $end
$var reg 4 c row_sync2 [3:0] $end
$var reg 32 d scan_counter [31:0] $end
$upscope $end
$upscope $end
$scope task display_debouncer_state $end
$upscope $end
$scope task display_display_state $end
$upscope $end
$scope task display_keypad_state $end
$upscope $end
$scope task display_scanner_state $end
$upscope $end
$scope task display_system_state $end
$upscope $end
$scope task press_key $end
$var reg 4 e col_val [3:0] $end
$upscope $end
$scope task release_key $end
$upscope $end
$scope task test_key_sequence $end
$var reg 4 f col_val [3:0] $end
$var reg 4 g expected_key [3:0] $end
$upscope $end
$scope task wait_for_key_processing $end
$var reg 4 h expected_key [3:0] $end
$upscope $end
$upscope $end
$enddefinitions $end
$comment Show the parameter values. $end
$dumpall
b1011101101111 [
b1110101001011111 E
b11111010000 &
b1100100 %
$end
#0
$dumpvars
bx h
bx g
bx f
bx e
b0 d
b1111 c
b1111 b
b1 a
b1110 `
b0 _
b0 ^
b1111 ]
b1111 \
0Z
b1111 Y
b1111 X
b1000000 W
b0 V
b0 U
b0 T
0S
b1000000 R
b1000000 Q
b0 P
b0 O
1N
b0 M
b1 L
b0 K
bx J
b0 I
b0 H
b0 G
b0 F
b1111 D
b0 C
b0 B
b0 A
b0 @
b0 ?
b0 >
b0 =
b0 <
b0 ;
0:
b1111 9
b0 8
b0 7
b0 6
05
04
b1110 3
b0 2
b1 1
00
b1000000 /
b1111 .
bx -
bx ,
bx +
b0 *
b0 )
0(
b1111 '
b1110 $
b1000000 #
1"
0!
$end
#50000
b0 J
1:
#100000
0:
#150000
1:
#200000
0:
#250000
1:
#300000
0:
#350000
1:
#400000
0:
#450000
1:
#500000
0:
#550000
1:
#600000
0:
#650000
1:
#700000
0:
#750000
1:
#800000
0:
#850000
1:
#900000
0:
#950000
1:
#1000000
0N
0:
1(
#1050000
b1 d
b1110 b
b1 U
1:
#1100000
0:
#1150000
b1110 c
b10 d
b10 U
1:
#1200000
0:
#1250000
b11 d
b11 U
1:
#1300000
0:
#1350000
b100 d
b100 U
1:
#1400000
0:
#1450000
b101 d
b101 U
1:
#1500000
0:
#1550000
b110 d
b110 U
b1 )
1:
#1600000
0:
#1650000
b111 d
b111 U
b10 )
1:
#1700000
0:
#1750000
b1000 d
b1000 U
b11 )
1:
#1800000
0:
#1850000
b1001 d
b1001 U
b100 )
1:
#1900000
0:
#1950000
b1010 d
b1010 U
b101 )
1:
#2000000
0:
#2050000
b1011 d
b1011 U
b110 )
1:
#2100000
0:
#2150000
b1100 d
b1100 U
b111 )
1:
#2200000
0:
#2250000
b1101 d
b1101 U
b1000 )
1:
#2300000
0:
#2350000
b1110 d
b1110 U
b1001 )
1:
#2400000
0:
#2450000
b1111 d
b1111 U
b1010 )
1:
#2500000
0:
#2550000
b10000 d
b10000 U
b1011 )
1:
#2600000
0:
#2650000
b10001 d
b10001 U
b1100 )
1:
#2700000
0:
#2750000
b10010 d
b10010 U
b1101 )
1:
#2800000
0:
#2850000
b10011 d
b10011 U
b1110 )
1:
#2900000
0:
#2950000
b10100 d
b10100 U
b1111 )
1:
#3000000
0:
#3050000
b10101 d
b10101 U
b10000 )
1:
#3100000
0:
#3150000
b10110 d
b10110 U
b10001 )
1:
#3200000
0:
#3250000
b10111 d
b10111 U
b10010 )
1:
#3300000
0:
#3350000
b11000 d
b11000 U
b10011 )
1:
#3400000
0:
#3450000
b11001 d
b1110 \
b11001 U
b0 +
b1 h
b1110 '
b1110 .
b1110 X
b1110 e
b1 g
b1110 f
b10100 )
1:
#3500000
0:
#3550000
b1 2
b1 C
b1 M
b1 ;
b1 K
15
b1110 9
b1110 D
b1110 Y
b1110 ]
b11010 d
b11010 U
b1 +
1:
#3600000
0:
#3650000
10
b1 I
b1 F
b11011 d
b11011 U
b10 +
1:
#3700000
0:
#3750000
b11100 d
b1 G
b11100 U
b11 +
1:
#3800000
0:
#3850000
b10 G
b11101 d
b11101 U
b100 +
1:
#3900000
0:
#3950000
b11110 d
b11 G
b11110 U
b101 +
1:
#4000000
0:
#4050000
b100 G
b11111 d
b11111 U
b110 +
1:
#4100000
0:
#4150000
b100000 d
b101 G
b100000 U
b111 +
1:
#4200000
0:
#4250000
b110 G
b100001 d
b100001 U
b1000 +
1:
#4300000
0:
#4350000
b100010 d
b111 G
b100010 U
b1001 +
1:
#4400000
0:
#4450000
b1000 G
b100011 d
b100011 U
b1010 +
1:
#4500000
0:
#4550000
b100100 d
b1001 G
b100100 U
b1011 +
1:
#4600000
0:
#4650000
b1010 G
b100101 d
b100101 U
b1100 +
1:
#4700000
0:
#4750000
b100110 d
b1011 G
b100110 U
b1101 +
1:
#4800000
0:
#4850000
b1100 G
b100111 d
b100111 U
b1110 +
1:
#4900000
0:
#4950000
b101000 d
b1101 G
b101000 U
b1111 +
1:
#5000000
0:
#5050000
b1110 G
b101001 d
b101001 U
b10000 +
1:
#5100000
0:
#5150000
b101010 d
b1111 G
b101010 U
b10001 +
1:
#5200000
0:
#5250000
b10000 G
b101011 d
b101011 U
b10010 +
1:
#5300000
0:
#5350000
b101100 d
b10001 G
b101100 U
b10011 +
1:
#5400000
0:
#5450000
b10010 G
b101101 d
b101101 U
b10100 +
1:
#5500000
0:
#5550000
b101110 d
b10011 G
b101110 U
b10101 +
1:
#5600000
0:
#5650000
b10100 G
b101111 d
b101111 U
b10110 +
1:
#5700000
0:
#5750000
b110000 d
b10101 G
b110000 U
b10111 +
1:
#5800000
0:
#5850000
b10110 G
b110001 d
b110001 U
b11000 +
1:
#5900000
0:
#5950000
b110010 d
b10111 G
b110010 U
b11001 +
1:
#6000000
0:
#6050000
b11000 G
b110011 d
b110011 U
b11010 +
1:
#6100000
0:
#6150000
b110100 d
b11001 G
b110100 U
b11011 +
1:
#6200000
0:
#6250000
b11010 G
b110101 d
b110101 U
b11100 +
1:
#6300000
0:
#6350000
b110110 d
b11011 G
b110110 U
b11101 +
1:
#6400000
0:
#6450000
b11100 G
b110111 d
b110111 U
b11110 +
1:
#6500000
0:
#6550000
b111000 d
b11101 G
b111000 U
b11111 +
1:
#6600000
0:
#6650000
b11110 G
b111001 d
b111001 U
b100000 +
1:
#6700000
0:
#6750000
b111010 d
b11111 G
b111010 U
b100001 +
1:
#6800000
0:
#6850000
b100000 G
b111011 d
b111011 U
b100010 +
1:
#6900000
0:
#6950000
b111100 d
b100001 G
b111100 U
b100011 +
1:
#7000000
0:
#7050000
b100010 G
b111101 d
b111101 U
b100100 +
1:
#7100000
0:
#7150000
b111110 d
b100011 G
b111110 U
b100101 +
1:
#7200000
0:
#7250000
b100100 G
b111111 d
b111111 U
b100110 +
1:
#7300000
0:
#7350000
b1000000 d
b100101 G
b1000000 U
b100111 +
1:
#7400000
0:
#7450000
b100110 G
b1000001 d
b1000001 U
b101000 +
1:
#7500000
0:
#7550000
b1000010 d
b100111 G
b1000010 U
b101001 +
1:
#7600000
0:
#7650000
b101000 G
b1000011 d
b1000011 U
b101010 +
1:
#7700000
0:
#7750000
b1000100 d
b101001 G
b1000100 U
b101011 +
1:
#7800000
0:
#7850000
b101010 G
b1000101 d
b1000101 U
b101100 +
1:
#7900000
0:
#7950000
b1000110 d
b101011 G
b1000110 U
b101101 +
1:
#8000000
0:
#8050000
b101100 G
b1000111 d
b1000111 U
b101110 +
1:
#8100000
0:
#8150000
b1001000 d
b101101 G
b1001000 U
b101111 +
1:
#8200000
0:
#8250000
b101110 G
b1001001 d
b1001001 U
b110000 +
1:
#8300000
0:
#8350000
b1001010 d
b101111 G
b1001010 U
b110001 +
1:
#8400000
0:
#8450000
b110000 G
b1001011 d
b1001011 U
b110010 +
1:
#8500000
0:
#8550000
b1001100 d
b110001 G
b1001100 U
b110011 +
1:
#8600000
0:
#8650000
b110010 G
b1001101 d
b1001101 U
b110100 +
1:
#8700000
0:
#8750000
b1001110 d
b110011 G
b1001110 U
b110101 +
1:
#8800000
0:
#8850000
b110100 G
b1001111 d
b1001111 U
b110110 +
1:
#8900000
0:
#8950000
b1010000 d
b110101 G
b1010000 U
b110111 +
1:
#9000000
0:
#9050000
b110110 G
b1010001 d
b1010001 U
b111000 +
1:
#9100000
0:
#9150000
b1010010 d
b110111 G
b1010010 U
b111001 +
1:
#9200000
0:
#9250000
b111000 G
b1010011 d
b1010011 U
b111010 +
1:
#9300000
0:
#9350000
b1010100 d
b111001 G
b1010100 U
b111011 +
1:
#9400000
0:
#9450000
b111010 G
b1010101 d
b1010101 U
b111100 +
1:
#9500000
0:
#9550000
b1010110 d
b111011 G
b1010110 U
b111101 +
1:
#9600000
0:
#9650000
b111100 G
b1010111 d
b1010111 U
b111110 +
1:
#9700000
0:
#9750000
b1011000 d
b111101 G
b1011000 U
b111111 +
1:
#9800000
0:
#9850000
b111110 G
b1011001 d
b1011001 U
b1000000 +
1:
#9900000
0:
#9950000
b1011010 d
b111111 G
b1011010 U
b1000001 +
1:
#10000000
0:
#10050000
b1000000 G
b1011011 d
b1011011 U
b1000010 +
1:
#10100000
0:
#10150000
b1011100 d
b1000001 G
b1011100 U
b1000011 +
1:
#10200000
0:
#10250000
b1000010 G
b1011101 d
b1011101 U
b1000100 +
1:
#10300000
0:
#10350000
b1011110 d
b1000011 G
b1011110 U
b1000101 +
1:
#10400000
0:
#10450000
b1000100 G
b1011111 d
b1011111 U
b1000110 +
1:
#10500000
0:
#10550000
b1100000 d
b1000101 G
b1100000 U
b1000111 +
1:
#10600000
0:
#10650000
b1000110 G
b1100001 d
b1100001 U
b1001000 +
1:
#10700000
0:
#10750000
b1100010 d
b1000111 G
b1100010 U
b1001001 +
1:
#10800000
0:
#10850000
b1001000 G
b1100011 d
b1100011 U
b1001010 +
1:
#10900000
0:
#10950000
b1100100 d
b1001001 G
b1100100 U
b1001011 +
1:
#11000000
0:
#11050000
b1001010 G
b1100101 d
b1100101 U
b1001100 +
1:
#11100000
0:
#11150000
b1100110 d
b1001011 G
b1100110 U
b1001101 +
1:
#11200000
0:
#11250000
b1001100 G
b1100111 d
b1100111 U
b1001110 +
1:
#11300000
0:
#11350000
b1101000 d
b1001101 G
b1101000 U
b1001111 +
1:
#11400000
0:
#11450000
b1001110 G
b1101001 d
b1101001 U
b1010000 +
1:
#11500000
0:
#11550000
b1101010 d
b1001111 G
b1101010 U
b1010001 +
1:
#11600000
0:
#11650000
b1010000 G
b1101011 d
b1101011 U
b1010010 +
1:
#11700000
0:
#11750000
b1101100 d
b1010001 G
b1101100 U
b1010011 +
1:
#11800000
0:
#11850000
b1010010 G
b1101101 d
b1101101 U
b1010100 +
1:
#11900000
0:
#11950000
b1101110 d
b1010011 G
b1101110 U
b1010101 +
1:
#12000000
0:
#12050000
b1010100 G
b1101111 d
b1101111 U
b1010110 +
1:
#12100000
0:
#12150000
b1110000 d
b1010101 G
b1110000 U
b1010111 +
1:
#12200000
0:
#12250000
b1010110 G
b1110001 d
b1110001 U
b1011000 +
1:
#12300000
0:
#12350000
b1110010 d
b1010111 G
b1110010 U
b1011001 +
1:
#12400000
0:
#12450000
b1011000 G
b1110011 d
b1110011 U
b1011010 +
1:
#12500000
0:
#12550000
b1110100 d
b1011001 G
b1110100 U
b1011011 +
1:
#12600000
0:
#12650000
b1011010 G
b1110101 d
b1110101 U
b1011100 +
1:
#12700000
0:
#12750000
b1110110 d
b1011011 G
b1110110 U
b1011101 +
1:
#12800000
0:
#12850000
b1011100 G
b1110111 d
b1110111 U
b1011110 +
1:
#12900000
0:
#12950000
b1111000 d
b1011101 G
b1111000 U
b1011111 +
1:
#13000000
0:
#13050000
b1011110 G
b1111001 d
b1111001 U
b1100000 +
1:
#13100000
0:
#13150000
b1111010 d
b1011111 G
b1111010 U
b1100001 +
1:
#13200000
0:
#13250000
b1100000 G
b1111011 d
b1111011 U
b1100010 +
1:
#13300000
0:
#13350000
b1111100 d
b1100001 G
b1111100 U
b1100011 +
1:
#13400000
0:
#13450000
b1100010 G
b1111101 d
b1111101 U
b1100100 +
1:
#13500000
0:
#13550000
b1111110 d
b1100011 G
b1111110 U
b1100101 +
1:
#13600000
0:
#13650000
b1100100 G
b1111111 d
b1111111 U
b1100110 +
1:
#13700000
0:
#13750000
b10000000 d
b1100101 G
b10000000 U
b1100111 +
1:
#13800000
0:
#13850000
b1100110 G
b10000001 d
b10000001 U
b1101000 +
1:
#13900000
0:
#13950000
b10000010 d
b1100111 G
b10000010 U
b1101001 +
1:
#14000000
0:
#14050000
b1101000 G
b10000011 d
b10000011 U
b1101010 +
1:
#14100000
0:
#14150000
b10000100 d
b1101001 G
b10000100 U
b1101011 +
1:
#14200000
0:
#14250000
b1101010 G
b10000101 d
b10000101 U
b1101100 +
1:
#14300000
0:
#14350000
b10000110 d
b1101011 G
b10000110 U
b1101101 +
1:
#14400000
0:
#14450000
b1101100 G
b10000111 d
b10000111 U
b1101110 +
1:
#14500000
0:
#14550000
b10001000 d
b1101101 G
b10001000 U
b1101111 +
1:
#14600000
0:
#14650000
b1101110 G
b10001001 d
b10001001 U
b1110000 +
1:
#14700000
0:
#14750000
b10001010 d
b1101111 G
b10001010 U
b1110001 +
1:
#14800000
0:
#14850000
b1110000 G
b10001011 d
b10001011 U
b1110010 +
1:
#14900000
0:
#14950000
b10001100 d
b1110001 G
b10001100 U
b1110011 +
1:
#15000000
0:
#15050000
b1110010 G
b10001101 d
b10001101 U
b1110100 +
1:
#15100000
0:
#15150000
b10001110 d
b1110011 G
b10001110 U
b1110101 +
1:
#15200000
0:
#15250000
b1110100 G
b10001111 d
b10001111 U
b1110110 +
1:
#15300000
0:
#15350000
b10010000 d
b1110101 G
b10010000 U
b1110111 +
1:
#15400000
0:
#15450000
b1110110 G
b10010001 d
b10010001 U
b1111000 +
1:
#15500000
0:
#15550000
b10010010 d
b1110111 G
b10010010 U
b1111001 +
1:
#15600000
0:
#15650000
b1111000 G
b10010011 d
b10010011 U
b1111010 +
1:
#15700000
0:
#15750000
b10010100 d
b1111001 G
b10010100 U
b1111011 +
1:
#15800000
0:
#15850000
b1111010 G
b10010101 d
b10010101 U
b1111100 +
1:
#15900000
0:
#15950000
b10010110 d
b1111011 G
b10010110 U
b1111101 +
1:
#16000000
0:
#16050000
b1111100 G
b10010111 d
b10010111 U
b1111110 +
1:
#16100000
0:
#16150000
b10011000 d
b1111101 G
b10011000 U
b1111111 +
1:
#16200000
0:
#16250000
b1111110 G
b10011001 d
b10011001 U
b10000000 +
1:
#16300000
0:
#16350000
b10011010 d
b1111111 G
b10011010 U
b10000001 +
1:
#16400000
0:
#16450000
b10000000 G
b10011011 d
b10011011 U
b10000010 +
1:
#16500000
0:
#16550000
b10011100 d
b10000001 G
b10011100 U
b10000011 +
1:
#16600000
0:
#16650000
b10000010 G
b10011101 d
b10011101 U
b10000100 +
1:
#16700000
0:
#16750000
b10011110 d
b10000011 G
b10011110 U
b10000101 +
1:
#16800000
0:
#16850000
b10000100 G
b10011111 d
b10011111 U
b10000110 +
1:
#16900000
0:
#16950000
b10100000 d
b10000101 G
b10100000 U
b10000111 +
1:
#17000000
0:
#17050000
b10000110 G
b10100001 d
b10100001 U
b10001000 +
1:
#17100000
0:
#17150000
b10100010 d
b10000111 G
b10100010 U
b10001001 +
1:
#17200000
0:
#17250000
b10001000 G
b10100011 d
b10100011 U
b10001010 +
1:
#17300000
0:
#17350000
b10100100 d
b10001001 G
b10100100 U
b10001011 +
1:
#17400000
0:
#17450000
b10001010 G
b10100101 d
b10100101 U
b10001100 +
1:
#17500000
0:
#17550000
b10100110 d
b10001011 G
b10100110 U
b10001101 +
1:
#17600000
0:
#17650000
b10001100 G
b10100111 d
b10100111 U
b10001110 +
1:
#17700000
0:
#17750000
b10101000 d
b10001101 G
b10101000 U
b10001111 +
1:
#17800000
0:
#17850000
b10001110 G
b10101001 d
b10101001 U
b10010000 +
1:
#17900000
0:
#17950000
b10101010 d
b10001111 G
b10101010 U
b10010001 +
1:
#18000000
0:
#18050000
b10010000 G
b10101011 d
b10101011 U
b10010010 +
1:
#18100000
0:
#18150000
b10101100 d
b10010001 G
b10101100 U
b10010011 +
1:
#18200000
0:
#18250000
b10010010 G
b10101101 d
b10101101 U
b10010100 +
1:
#18300000
0:
#18350000
b10101110 d
b10010011 G
b10101110 U
b10010101 +
1:
#18400000
0:
#18450000
b10010100 G
b10101111 d
b10101111 U
b10010110 +
1:
#18500000
0:
#18550000
b10110000 d
b10010101 G
b10110000 U
b10010111 +
1:
#18600000
0:
#18650000
b10010110 G
b10110001 d
b10110001 U
b10011000 +
1:
#18700000
0:
#18750000
b10110010 d
b10010111 G
b10110010 U
b10011001 +
1:
#18800000
0:
#18850000
b10011000 G
b10110011 d
b10110011 U
b10011010 +
1:
#18900000
0:
#18950000
b10110100 d
b10011001 G
b10110100 U
b10011011 +
1:
#19000000
0:
#19050000
b10011010 G
b10110101 d
b10110101 U
b10011100 +
1:
#19100000
0:
#19150000
b10110110 d
b10011011 G
b10110110 U
b10011101 +
1:
#19200000
0:
#19250000
b10011100 G
b10110111 d
b10110111 U
b10011110 +
1:
#19300000
0:
#19350000
b10111000 d
b10011101 G
b10111000 U
b10011111 +
1:
#19400000
0:
#19450000
b10011110 G
b10111001 d
b10111001 U
b10100000 +
1:
#19500000
0:
#19550000
b10111010 d
b10011111 G
b10111010 U
b10100001 +
1:
#19600000
0:
#19650000
b10100000 G
b10111011 d
b10111011 U
b10100010 +
1:
#19700000
0:
#19750000
b10111100 d
b10100001 G
b10111100 U
b10100011 +
1:
#19800000
0:
#19850000
b10100010 G
b10111101 d
b10111101 U
b10100100 +
1:
#19900000
0:
#19950000
b10111110 d
b10100011 G
b10111110 U
b10100101 +
1:
#20000000
0:
#20050000
b10100100 G
b10111111 d
b10111111 U
b10100110 +
1:
#20100000
0:
#20150000
b11000000 d
b10100101 G
b11000000 U
b10100111 +
1:
#20200000
0:
#20250000
b10100110 G
b11000001 d
b11000001 U
b10101000 +
1:
#20300000
0:
#20350000
b11000010 d
b10100111 G
b11000010 U
b10101001 +
1:
#20400000
0:
#20450000
b10101000 G
b11000011 d
b11000011 U
b10101010 +
1:
#20500000
0:
#20550000
b11000100 d
b10101001 G
b11000100 U
b10101011 +
1:
#20600000
0:
#20650000
b10101010 G
b11000101 d
b11000101 U
b10101100 +
1:
#20700000
0:
#20750000
b11000110 d
b10101011 G
b11000110 U
b10101101 +
1:
#20800000
0:
#20850000
b10101100 G
b11000111 d
b11000111 U
b10101110 +
1:
#20900000
0:
#20950000
b11001000 d
b10101101 G
b11001000 U
b10101111 +
1:
#21000000
0:
#21050000
b10101110 G
b11001001 d
b11001001 U
b10110000 +
1:
#21100000
0:
#21150000
b11001010 d
b10101111 G
b11001010 U
b10110001 +
1:
#21200000
0:
#21250000
b10110000 G
b11001011 d
b11001011 U
b10110010 +
1:
#21300000
0:
#21350000
b11001100 d
b10110001 G
b11001100 U
b10110011 +
1:
#21400000
0:
#21450000
b10110010 G
b11001101 d
b11001101 U
b10110100 +
1:
#21500000
0:
#21550000
b11001110 d
b10110011 G
b11001110 U
b10110101 +
1:
#21600000
0:
#21650000
b10110100 G
b11001111 d
b11001111 U
b10110110 +
1:
#21700000
0:
#21750000
b11010000 d
b10110101 G
b11010000 U
b10110111 +
1:
#21800000
0:
#21850000
b10110110 G
b11010001 d
b11010001 U
b10111000 +
1:
#21900000
0:
#21950000
b11010010 d
b10110111 G
b11010010 U
b10111001 +
1:
#22000000
0:
#22050000
b10111000 G
b11010011 d
b11010011 U
b10111010 +
1:
#22100000
0:
#22150000
b11010100 d
b10111001 G
b11010100 U
b10111011 +
1:
#22200000
0:
#22250000
b10111010 G
b11010101 d
b11010101 U
b10111100 +
1:
#22300000
0:
#22350000
b11010110 d
b10111011 G
b11010110 U
b10111101 +
1:
#22400000
0:
#22450000
b10111100 G
b11010111 d
b11010111 U
b10111110 +
1:
#22500000
0:
#22550000
b11011000 d
b10111101 G
b11011000 U
b10111111 +
1:
#22600000
0:
#22650000
b10111110 G
b11011001 d
b11011001 U
b11000000 +
1:
#22700000
0:
#22750000
b11011010 d
b10111111 G
b11011010 U
b11000001 +
1:
#22800000
0:
#22850000
b11000000 G
b11011011 d
b11011011 U
b11000010 +
1:
#22900000
0:
#22950000
b11011100 d
b11000001 G
b11011100 U
b11000011 +
1:
#23000000
0:
#23050000
b11000010 G
b11011101 d
b11011101 U
b11000100 +
1:
#23100000
0:
#23150000
b11011110 d
b11000011 G
b11011110 U
b11000101 +
1:
#23200000
0:
#23250000
b11000100 G
b11011111 d
b11011111 U
b11000110 +
1:
#23300000
0:
#23350000
b11100000 d
b11000101 G
b11100000 U
b11000111 +
1:
#23400000
0:
#23450000
b11000110 G
b11100001 d
b11100001 U
b11001000 +
1:
#23500000
0:
#23550000
b11100010 d
b11000111 G
b11100010 U
b11001001 +
1:
#23600000
0:
#23650000
b11001000 G
b11100011 d
b11100011 U
b11001010 +
1:
#23700000
0:
#23750000
b11100100 d
b11001001 G
b11100100 U
b11001011 +
1:
#23800000
0:
#23850000
b11001010 G
b11100101 d
b11100101 U
b11001100 +
1:
#23900000
0:
#23950000
b11100110 d
b11001011 G
b11100110 U
b11001101 +
1:
#24000000
0:
#24050000
b11001100 G
b11100111 d
b11100111 U
b11001110 +
1:
#24100000
0:
#24150000
b11101000 d
b11001101 G
b11101000 U
b11001111 +
1:
#24200000
0:
#24250000
b11001110 G
b11101001 d
b11101001 U
b11010000 +
1:
#24300000
0:
#24350000
b11101010 d
b11001111 G
b11101010 U
b11010001 +
1:
#24400000
0:
#24450000
b11010000 G
b11101011 d
b11101011 U
b11010010 +
1:
#24500000
0:
#24550000
b11101100 d
b11010001 G
b11101100 U
b11010011 +
1:
#24600000
0:
#24650000
b11010010 G
b11101101 d
b11101101 U
b11010100 +
1:
#24700000
0:
#24750000
b11101110 d
b11010011 G
b11101110 U
b11010101 +
1:
#24800000
0:
#24850000
b11010100 G
b11101111 d
b11101111 U
b11010110 +
1:
#24900000
0:
#24950000
b11110000 d
b11010101 G
b11110000 U
b11010111 +
1:
#25000000
0:
#25050000
b11010110 G
b11110001 d
b11110001 U
b11011000 +
1:
#25100000
0:
#25150000
b11110010 d
b11010111 G
b11110010 U
b11011001 +
1:
#25200000
0:
#25250000
b11011000 G
b11110011 d
b11110011 U
b11011010 +
1:
#25300000
0:
#25350000
b11110100 d
b11011001 G
b11110100 U
b11011011 +
1:
#25400000
0:
#25450000
b11011010 G
b11110101 d
b11110101 U
b11011100 +
1:
#25500000
0:
#25550000
b11110110 d
b11011011 G
b11110110 U
b11011101 +
1:
#25600000
0:
#25650000
b11011100 G
b11110111 d
b11110111 U
b11011110 +
1:
#25700000
0:
#25750000
b11111000 d
b11011101 G
b11111000 U
b11011111 +
1:
#25800000
0:
#25850000
b11011110 G
b11111001 d
b11111001 U
b11100000 +
1:
#25900000
0:
#25950000
b11111010 d
b11011111 G
b11111010 U
b11100001 +
1:
#26000000
0:
#26050000
b11100000 G
b11111011 d
b11111011 U
b11100010 +
1:
#26100000
0:
#26150000
b11111100 d
b11100001 G
b11111100 U
b11100011 +
1:
#26200000
0:
#26250000
b11100010 G
b11111101 d
b11111101 U
b11100100 +
1:
#26300000
0:
#26350000
b11111110 d
b11100011 G
b11111110 U
b11100101 +
1:
#26400000
0:
#26450000
b11100100 G
b11111111 d
b11111111 U
b11100110 +
1:
#26500000
0:
#26550000
b100000000 d
b11100101 G
b100000000 U
b11100111 +
1:
#26600000
0:
#26650000
b11100110 G
b100000001 d
b100000001 U
b11101000 +
1:
#26700000
0:
#26750000
b100000010 d
b11100111 G
b100000010 U
b11101001 +
1:
#26800000
0:
#26850000
b11101000 G
b100000011 d
b100000011 U
b11101010 +
1:
#26900000
0:
#26950000
b100000100 d
b11101001 G
b100000100 U
b11101011 +
1:
#27000000
0:
#27050000
b11101010 G
b100000101 d
b100000101 U
b11101100 +
1:
#27100000
0:
#27150000
b100000110 d
b11101011 G
b100000110 U
b11101101 +
1:
#27200000
0:
#27250000
b11101100 G
b100000111 d
b100000111 U
b11101110 +
1:
#27300000
0:
#27350000
b100001000 d
b11101101 G
b100001000 U
b11101111 +
1:
#27400000
0:
#27450000
b11101110 G
b100001001 d
b100001001 U
b11110000 +
1:
#27500000
0:
#27550000
b100001010 d
b11101111 G
b100001010 U
b11110001 +
1:
#27600000
0:
#27650000
b11110000 G
b100001011 d
b100001011 U
b11110010 +
1:
#27700000
0:
#27750000
b100001100 d
b11110001 G
b100001100 U
b11110011 +
1:
#27800000
0:
#27850000
b11110010 G
b100001101 d
b100001101 U
b11110100 +
1:
#27900000
0:
#27950000
b100001110 d
b11110011 G
b100001110 U
b11110101 +
1:
#28000000
0:
#28050000
b11110100 G
b100001111 d
b100001111 U
b11110110 +
1:
#28100000
0:
#28150000
b100010000 d
b11110101 G
b100010000 U
b11110111 +
1:
#28200000
0:
#28250000
b11110110 G
b100010001 d
b100010001 U
b11111000 +
1:
#28300000
0:
#28350000
b100010010 d
b11110111 G
b100010010 U
b11111001 +
1:
#28400000
0:
#28450000
b11111000 G
b100010011 d
b100010011 U
b11111010 +
1:
#28500000
0:
#28550000
b100010100 d
b11111001 G
b100010100 U
b11111011 +
1:
#28600000
0:
#28650000
b11111010 G
b100010101 d
b100010101 U
b11111100 +
1:
#28700000
0:
#28750000
b100010110 d
b11111011 G
b100010110 U
b11111101 +
1:
#28800000
0:
#28850000
b11111100 G
b100010111 d
b100010111 U
b11111110 +
1:
#28900000
0:
#28950000
b100011000 d
b11111101 G
b100011000 U
b11111111 +
1:
#29000000
0:
#29050000
b11111110 G
b100011001 d
b100011001 U
b100000000 +
1:
#29100000
0:
#29150000
b100011010 d
b11111111 G
b100011010 U
b100000001 +
1:
#29200000
0:
#29250000
b100000000 G
b100011011 d
b100011011 U
b100000010 +
1:
#29300000
0:
#29350000
b100011100 d
b100000001 G
b100011100 U
b100000011 +
1:
#29400000
0:
#29450000
b100000010 G
b100011101 d
b100011101 U
b100000100 +
1:
#29500000
0:
#29550000
b100011110 d
b100000011 G
b100011110 U
b100000101 +
1:
#29600000
0:
#29650000
b100000100 G
b100011111 d
b100011111 U
b100000110 +
1:
#29700000
0:
#29750000
b100100000 d
b100000101 G
b100100000 U
b100000111 +
1:
#29800000
0:
